<svg width="41" height="40" viewBox="0 0 41 40" fill="none" xmlns="http://www.w3.org/2000/svg">
<path d="M17.1673 12.276L16.2344 13.2089L16.7008 13.6754V23.0257L16.2344 23.4922L17.1673 24.4251L17.8271 23.7653C17.9508 23.6416 18.0204 23.4739 18.0204 23.2989V13.4022C18.0204 13.2273 17.9508 13.0595 17.8271 12.9358L17.1673 12.276Z" fill="#014873"/>
<path d="M23.7655 13.2089L22.8326 12.276L22.1728 12.9358C22.0491 13.0595 21.9795 13.2273 21.9795 13.4022V23.2989C21.9795 23.4739 22.0491 23.6416 22.1728 23.7653L22.8326 24.4251L23.7655 23.4922L23.299 23.0257V13.6754L23.7655 13.2089Z" fill="#014873"/>
<path d="M39.8075 25.8113L37.941 23.9448C37.8239 23.828 37.6673 23.7594 37.5021 23.7525C37.337 23.7457 37.1752 23.8011 37.0489 23.9079L32.2814 27.9417C31.5494 27.8665 30.811 27.996 30.1483 28.3158L25.9383 22.4273V18.2186L30.2645 11.733C30.7708 11.9628 31.3203 12.082 31.8763 12.0827C32.0082 12.0827 32.1402 12.0596 32.2722 12.047L37.0569 16.0875C37.1832 16.1942 37.345 16.2495 37.5102 16.2425C37.6754 16.2355 37.8319 16.1668 37.9489 16.0499L39.8094 14.1893C39.9263 14.0724 39.9951 13.9159 40.002 13.7507C40.009 13.5855 39.9537 13.4237 39.8471 13.2973L35.8158 8.52317C35.8779 7.93849 35.8083 7.34733 35.6123 6.793C35.4163 6.23866 35.0988 5.7352 34.683 5.31947C34.2672 4.90375 33.7637 4.58629 33.2093 4.39036C32.6549 4.19444 32.0638 4.12499 31.4791 4.18712L26.7003 0.15786C26.574 0.0512172 26.4122 -0.00409697 26.247 0.0028676C26.0818 0.00983217 25.9252 0.0785678 25.8083 0.195467L23.9477 2.05406C23.8308 2.17099 23.7621 2.32755 23.7551 2.49274C23.7482 2.65794 23.8035 2.81972 23.9101 2.94608L27.9506 7.73012C27.8845 8.35104 27.9668 8.97879 28.1908 9.56166L25.7496 11.0277C25.5305 10.3757 25.1127 9.80868 24.5549 9.40624C23.9971 9.00379 23.3272 8.78613 22.6394 8.78379H17.3612C16.6733 8.78594 16.0034 9.00345 15.4455 9.40578C14.8875 9.8081 14.4696 10.3751 14.2503 11.027L11.8092 9.56034C12.0335 8.97732 12.116 8.34933 12.05 7.72814L16.0924 2.9507C16.1994 2.82438 16.2549 2.6625 16.2481 2.49715C16.2412 2.3318 16.1725 2.17507 16.0555 2.05802L14.189 0.192828C14.072 0.0760229 13.9154 0.00740803 13.7502 0.000565706C13.585 -0.00627662 13.4232 0.0491523 13.297 0.15588L8.52941 4.18976C7.94423 4.12712 7.35244 4.1963 6.79747 4.39222C6.24251 4.58815 5.73846 4.90585 5.3223 5.322C4.90615 5.73816 4.58845 6.24221 4.39253 6.79717C4.1966 7.35213 4.12742 7.94392 4.19006 8.52911L0.156183 13.296C0.0492652 13.4223 -0.0062788 13.5842 0.000564872 13.7495C0.00740854 13.9149 0.0761401 14.0716 0.19313 14.1887L2.05964 16.0552C2.17665 16.172 2.33326 16.2406 2.49845 16.2475C2.66364 16.2543 2.82539 16.1989 2.95166 16.0921L7.72844 12.049C7.8604 12.0622 7.99236 12.0853 8.12431 12.0853C8.67938 12.0849 9.22797 11.9662 9.73351 11.737L14.0623 18.2186V22.4253L9.85095 28.3158C9.18831 27.9943 8.44932 27.8634 7.71657 27.9378L2.95166 23.9079C2.82539 23.8011 2.66364 23.7457 2.49845 23.7525C2.33326 23.7594 2.17665 23.828 2.05964 23.9448L0.19313 25.8113C0.0761401 25.9284 0.00740854 26.0851 0.000564872 26.2505C-0.0062788 26.4158 0.0492652 26.5777 0.156183 26.704L4.19006 31.4709C4.13192 32.022 4.19041 32.5791 4.36172 33.1062C4.53303 33.6332 4.81333 34.1182 5.1844 34.5298C5.55547 34.9414 6.009 35.2703 6.5155 35.4951C7.02201 35.7199 7.57016 35.8356 8.12431 35.8347C8.25627 35.8347 8.38822 35.8116 8.52018 35.7984L13.2983 39.8415C13.4246 39.9482 13.5863 40.0036 13.7515 39.9968C13.9167 39.99 14.0733 39.9213 14.1903 39.8045L16.0568 37.938C16.1738 37.821 16.2425 37.6642 16.2494 37.4989C16.2562 37.3335 16.2007 37.1717 16.0938 37.0453L12.05 32.2719C12.1168 31.6501 12.0344 31.0213 11.8098 30.4377L14.2985 28.9426L14.7419 30.7181C14.7779 30.8605 14.8604 30.9869 14.9763 31.0771C15.0922 31.1673 15.235 31.2163 15.3819 31.2162H24.6187C24.7658 31.2162 24.9087 31.1671 25.0246 31.0766C25.1406 30.9861 25.223 30.8594 25.2587 30.7168L25.7021 28.9413L28.1921 30.4377C27.9638 31.0236 27.8781 31.6555 27.942 32.2811L23.9082 37.048C23.8012 37.1743 23.7457 37.3362 23.7525 37.5015C23.7594 37.6669 23.8281 37.8236 23.9451 37.9407L25.8116 39.8072C25.9286 39.924 26.0852 39.9926 26.2504 39.9994C26.4156 40.0063 26.5774 39.9508 26.7036 39.8441L31.4804 35.801C31.6124 35.8142 31.7443 35.8373 31.8763 35.8373C32.4308 35.8384 32.9793 35.7228 33.4862 35.4979C33.9931 35.273 34.4469 34.944 34.8182 34.5321C35.1894 34.1202 35.4698 33.6347 35.641 33.1073C35.8122 32.5799 35.8704 32.0223 35.8119 31.4709L39.8457 26.704C39.9525 26.5775 40.0078 26.4155 40.0007 26.2502C39.9936 26.0848 39.9246 25.9282 39.8075 25.8113ZM9.58308 10.3217C9.48434 10.3836 9.38163 10.4389 9.27562 10.4873L9.57582 9.57552L10.4837 9.27268C10.4487 9.3446 10.4177 9.41915 10.3788 9.48843C10.1819 9.82443 9.90804 10.1089 9.57978 10.3184L9.58308 10.3217ZM6.97762 5.74881L6.6728 6.6725L5.74911 6.97996C6.00308 6.43926 6.43747 6.00393 6.97762 5.74881ZM2.56305 14.6928L1.55557 13.6853L6.17401 8.22496L7.3979 7.81721C7.49505 7.78475 7.58331 7.73011 7.65569 7.65762C7.72806 7.58513 7.78256 7.49678 7.81488 7.39957L8.22328 6.17503L13.6836 1.55659L14.6911 2.56407L10.0726 8.02438L8.84875 8.43213C8.75159 8.46459 8.66333 8.51923 8.59096 8.59172C8.51858 8.66421 8.46408 8.75256 8.43177 8.84976L8.02337 10.0743L2.56305 14.6928ZM10.8367 11.0066C10.8663 10.9789 10.8974 10.9551 10.9264 10.9261C11.0016 10.8509 11.0643 10.7724 11.1309 10.6952L14.0623 12.4561V15.8434L10.8367 11.0066ZM14.0623 27.5439L11.1309 29.3029C11.0649 29.227 11.0036 29.1498 10.933 29.0759L14.0623 24.6963V27.5439ZM9.99346 30.0068C10.1481 30.1597 10.2813 30.3328 10.3893 30.5215C10.4283 30.5874 10.4553 30.6534 10.4876 30.7247L9.57582 30.4245L9.27166 29.514C9.4124 29.5796 9.54708 29.6576 9.67413 29.7469C9.7892 29.8224 9.89621 29.9095 9.99346 30.0068ZM5.74911 33.0233L6.6728 33.3308L6.98092 34.2545C6.43954 34 6.0039 33.5646 5.74911 33.0233ZM13.6869 38.4447L8.22658 33.8263L7.81686 32.6017C7.78454 32.5045 7.73004 32.4162 7.65767 32.3437C7.58529 32.2712 7.49703 32.2166 7.39988 32.1841L6.17599 31.7764L1.55755 26.316L2.56503 25.3086L8.02534 29.927L8.43375 31.1516C8.46606 31.2488 8.52056 31.3371 8.59294 31.4096C8.66531 31.4821 8.75357 31.5367 8.85073 31.5692L10.0746 31.9769L14.6931 37.4373L13.6869 38.4447ZM30.0071 30.0068C30.2174 29.7978 30.4617 29.626 30.7296 29.4988L30.4248 30.4245L29.5011 30.7319C29.6275 30.4633 29.7986 30.2181 30.0071 30.0068ZM25.9383 12.4561L28.8697 10.6971C28.9357 10.7743 29.0016 10.8535 29.0749 10.9287C29.1039 10.9578 29.1343 10.9815 29.1639 11.0086L25.9383 15.8434V12.4561ZM30.0071 9.99316C29.8525 9.84034 29.7193 9.66721 29.6113 9.47853C29.573 9.41255 29.5453 9.34658 29.5143 9.2806L30.4248 9.57552L30.7217 10.4827C30.6106 10.4321 30.5032 10.3737 30.4004 10.3079C30.258 10.2179 30.1261 10.1124 30.0071 9.99316ZM34.2515 6.97402L33.3278 6.6725L33.025 5.74881C33.2913 5.87635 33.5344 6.04763 33.7441 6.25552C33.9526 6.46467 34.1241 6.7076 34.2515 6.97402ZM26.3124 1.55725L31.7767 6.17173L32.1798 7.39825C32.2121 7.4965 32.267 7.58578 32.3401 7.6589C32.4132 7.73202 32.5025 7.78692 32.6007 7.81919L33.8286 8.22298L38.4431 13.6866L37.4402 14.6895L31.9766 10.077L31.6929 9.21C31.6882 9.19015 31.6824 9.17055 31.6757 9.15128L31.5702 8.84119C31.5372 8.74457 31.4822 8.65693 31.4097 8.58514C31.3371 8.51336 31.2488 8.4594 31.1519 8.42751L29.924 8.02372L25.3095 2.56011L26.3124 1.55725ZM17.5466 29.8967L17.8765 28.5771H22.1241L22.454 29.8967H17.5466ZM24.6187 27.8362L24.1035 29.8967H23.8138L23.2794 27.757C23.2437 27.6143 23.1613 27.4877 23.0453 27.3972C22.9294 27.3067 22.7865 27.2576 22.6394 27.2575H17.3612C17.2141 27.2576 17.0712 27.3067 16.9553 27.3972C16.8393 27.4877 16.757 27.6143 16.7212 27.757L16.1868 29.8967H15.8971L15.3819 27.8362V12.0827C15.3819 11.5577 15.5904 11.0543 15.9616 10.6831C16.3328 10.3119 16.8362 10.1033 17.3612 10.1033H22.6394C23.1644 10.1033 23.6678 10.3119 24.039 10.6831C24.4102 11.0543 24.6187 11.5577 24.6187 12.0827V27.8362ZM25.9383 27.5439V24.6963L29.0709 29.0779C28.999 29.1498 28.939 29.2283 28.873 29.3048L25.9383 27.5439ZM33.023 34.2512L33.3311 33.3275L34.2548 33.02C34 33.5613 33.5644 33.9967 33.023 34.2512ZM33.8246 31.7731L32.6007 32.1808C32.5036 32.2133 32.4153 32.2679 32.3429 32.3404C32.2706 32.4129 32.2161 32.5012 32.1837 32.5984L31.7753 33.823L26.315 38.4414L25.3075 37.434L29.926 31.9736L31.1499 31.5659C31.247 31.5334 31.3353 31.4788 31.4077 31.4063C31.48 31.3338 31.5345 31.2455 31.5669 31.1483L31.9753 29.9237L37.4356 25.3053L38.4431 26.3127L33.8246 31.7731Z" fill="#014873"/>
</svg>
