<svg width="36" height="38" viewBox="0 0 36 38" fill="none" xmlns="http://www.w3.org/2000/svg">
<path d="M12.095 2.06457C11.9226 2.23695 11.9229 2.51508 12.095 2.68736C12.2674 2.8597 12.5456 2.85956 12.7178 2.68736C12.8902 2.51494 12.8901 2.2367 12.7178 2.06457C12.5445 1.89121 12.2634 1.89616 12.095 2.06457Z" fill="#014873"/>
<path d="M9.18078 1.97051C9.01625 1.90001 8.8165 1.94114 8.69899 2.06453C8.5402 2.22318 8.5151 2.5034 8.69899 2.68733C8.8737 2.862 9.15177 2.85727 9.32178 2.68733C9.53705 2.47206 9.48 2.10366 9.18078 1.97051Z" fill="#014873"/>
<path d="M10.3963 2.0646C10.2375 2.22325 10.2124 2.50346 10.3963 2.68739C10.5699 2.86114 10.8482 2.85819 11.019 2.68739C11.1949 2.51146 11.1872 2.23279 11.019 2.0646C10.8507 1.89627 10.5711 1.88964 10.3963 2.0646Z" fill="#014873"/>
<path d="M32.2714 30.5251C32.446 30.6974 32.7229 30.6968 32.8945 30.5251C33.0617 30.3579 33.0706 30.0781 32.8945 29.902C32.7298 29.7373 32.4303 29.7373 32.2714 29.902C32.1008 30.075 32.0985 30.3498 32.2714 30.5251Z" fill="#014873"/>
<path d="M30.0031 30.5251C30.2411 30.7598 30.6324 30.643 30.7197 30.384C30.7946 30.1959 30.742 30.0184 30.6256 29.902C30.4615 29.7373 30.1677 29.7373 30.0031 29.902C29.8293 30.0758 29.8327 30.3548 30.0031 30.5251Z" fill="#014873"/>
<path d="M27.7355 30.5251C27.9099 30.6984 28.1855 30.6958 28.3586 30.5251C28.5226 30.3588 28.5369 30.0828 28.3586 29.902C28.1923 29.7358 27.9115 29.726 27.7355 29.902C27.5635 30.0752 27.5634 30.3507 27.7355 30.5251Z" fill="#014873"/>
<path d="M8.10569 11.6268H27.895C28.1383 11.6268 28.3356 11.4295 28.3356 11.1862V6.58915C28.3356 6.34588 28.1383 6.1485 27.895 6.1485H8.10569C7.86242 6.1485 7.66504 6.34588 7.66504 6.58915V11.1862C7.66504 11.4295 7.86242 11.6268 8.10569 11.6268ZM8.54635 7.02981H27.4543V10.7455H8.54635V7.02981Z" fill="#014873"/>
<path d="M8.10569 22.3225H17.663C17.9127 22.3225 18.1036 22.1065 18.1036 21.8818C18.1044 14.076 18.1114 23.5098 18.1036 13.8135C18.1036 13.5702 17.9062 13.3728 17.663 13.3728H8.10569C7.86242 13.3728 7.66504 13.5702 7.66504 13.8135V21.8818C7.66504 22.1251 7.86242 22.3225 8.10569 22.3225ZM8.54635 19.7111L11.2683 16.8699L16.4904 21.4411H8.54635V19.7111ZM17.2223 20.9104L15.553 19.4492L17.2223 17.7074V20.9104ZM17.2223 14.2541V16.4347L14.8897 18.8687L11.5317 15.9295C11.3538 15.7752 11.087 15.7866 10.9229 15.9565L8.54635 18.437V14.2541H17.2223Z" fill="#014873"/>
<path d="M30.6129 2.17917C30.6129 0.977701 29.6352 0 28.4331 0H7.56802C6.36655 0 5.38884 0.977701 5.38884 2.17917C5.38884 4.28617 5.38884 6.1632 5.38884 8.27203H1.53943C0.690818 8.27203 6.80459e-07 8.96285 6.80459e-07 9.81145C0.000353204 12.021 -0.00127423 1.80855 0.00344372 31.4173C0.00344372 32.2653 0.693685 32.955 1.54172 32.955H15.4749L14.7587 36.4275H12.6855C12.4422 36.4275 12.2448 36.6248 12.2448 36.8681C12.2448 37.1114 12.4422 37.3088 12.6855 37.3088C14.8274 37.3088 21.1076 37.3088 23.318 37.3088C23.5613 37.3088 23.7586 37.1114 23.7586 36.8681C23.7586 36.6248 23.5613 36.4275 23.318 36.4275H21.2447L20.5285 32.955H34.4623C35.3103 32.955 36 32.2653 36 31.4173C35.9999 30.937 35.9966 10.2921 35.9966 9.81145C35.9966 8.96284 35.3086 8.27202 34.4629 8.27202H30.6129C30.6129 6.16323 30.6129 4.28621 30.6129 2.17917ZM29.7316 22.8997C29.7316 23.6152 29.1492 24.1976 28.4331 24.1976H7.56802C6.85253 24.1976 6.27015 23.6152 6.27015 22.8997V4.7531H29.7316V22.8997ZM6.27015 2.17917C6.27015 1.46368 6.85253 0.881309 7.56802 0.881309H28.4331C29.1492 0.881309 29.7316 1.46368 29.7316 2.17917V3.87179H6.27015V2.17917ZM20.3447 36.4275H15.6587L16.3748 32.955H19.6286L20.3447 36.4275ZM35.1187 31.4173C35.1187 31.7794 34.8243 32.0737 34.4623 32.0737C11.5448 32.0737 27.5121 32.0737 1.54172 32.0737C1.17967 32.0737 0.884753 31.7794 0.884753 31.4173V28.3517H35.1187V31.4173ZM34.4629 9.15334C34.8226 9.15334 35.1152 9.44883 35.1152 9.81145V27.4669H0.88131V9.81145C0.88131 9.44883 1.1768 9.15334 1.53943 9.15334H5.38884V22.8997C5.38884 24.1012 6.36655 25.0789 7.56802 25.0789H28.4331C29.6352 25.0789 30.6129 24.1012 30.6129 22.8997V9.15334H34.4629Z" fill="#014873"/>
<path d="M26.9913 1.93591H19.6379C19.3946 1.93591 19.1973 2.13329 19.1973 2.37657C19.1973 2.61984 19.3946 2.81722 19.6379 2.81722H26.9913C27.2346 2.81722 27.432 2.61984 27.432 2.37657C27.432 2.13329 27.2346 1.93591 26.9913 1.93591Z" fill="#014873"/>
<path d="M26.992 13.3728H20.5813C20.338 13.3728 20.1406 13.5702 20.1406 13.8135C20.1406 14.0567 20.338 14.2541 20.5813 14.2541H26.992C27.2353 14.2541 27.4327 14.0567 27.4327 13.8135C27.4327 13.5702 27.2353 13.3728 26.992 13.3728Z" fill="#014873"/>
<path d="M26.992 17.407H20.5813C20.338 17.407 20.1406 17.6044 20.1406 17.8476C20.1406 18.0909 20.338 18.2883 20.5813 18.2883H26.992C27.2353 18.2883 27.4327 18.0909 27.4327 17.8476C27.4327 17.6044 27.2353 17.407 26.992 17.407Z" fill="#014873"/>
<path d="M26.992 21.4412H20.5813C20.338 21.4412 20.1406 21.6385 20.1406 21.8818C20.1406 22.1251 20.338 22.3225 20.5813 22.3225H26.992C27.2353 22.3225 27.4327 22.1251 27.4327 21.8818C27.4327 21.6385 27.2353 21.4412 26.992 21.4412Z" fill="#014873"/>
</svg>
